74.533705 19.342986
73.869216 18.317963
73.699788 19.135962
73.521330 19.927951
72.859940 18.899126
73.205339 17.280636
73.862531 18.307608
73.019843 18.075332
72.200048 17.857550
72.853296 18.888709
71.099102 18.480326
71.747669 19.514917
71.926700 18.698665
72.111017 17.908131
72.764318 18.939391
72.411769 20.557289
71.754267 19.525363
72.602643 19.763012
73.432456 19.978721
72.770950 18.949824
72.967384 16.915042
72.319087 15.885785
72.146404 16.702720
71.965166 17.493605
71.319476 16.461045
71.670312 14.844551
72.312559 15.875395
71.482255 15.638190
70.674176 15.416089
71.312985 16.450604
69.587032 16.030323
70.221168 17.068131
70.402425 16.252777
70.588993 15.463162
71.227363 16.498169
70.869471 18.114081
70.227617 17.078609
71.062616 17.320908
71.879181 17.541614
71.233846 16.508628
71.445214 14.474251
70.811029 13.440912
70.635174 14.256889
70.451250 15.046821
69.819264 14.010674
70.175436 12.395832
70.804640 13.430464
69.984829 13.188597
69.186630 12.962428
69.812913 14.000183
68.107511 13.575416
68.730420 14.615181
68.912677 13.800557
69.100320 13.011741
69.727011 14.049214
69.366318 15.663390
68.736743 14.625702
69.560497 14.871208
70.365853 15.095508
69.733378 14.059686
77.402493 18.218413
76.329292 18.859361
77.196279 19.008690
78.037616 19.161466
76.960568 19.806865
75.237297 19.501085
76.318406 18.865823
76.082776 19.669160
75.863773 20.452235
76.949636 19.813357
76.553800 21.483535
77.643931 20.840963
76.766369 20.693890
75.918056 20.535214
77.004286 19.895867
78.735256 20.184393
77.654898 20.834432
77.884180 20.028968
78.092555 19.243411
77.015216 19.889375
77.088778 17.838522
76.418144 16.820543
76.259763 17.640237
76.092365 18.434041
75.424362 17.412532
75.747461 15.790415
76.411402 16.810248
75.572937 16.587089
74.757124 16.378489
75.417652 17.402201
73.674918 17.012240
74.331944 18.038783
74.498501 17.220463
74.670897 16.427800
75.332143 17.451249
75.003970 19.073090
74.338626 18.049142
75.182594 18.276689
76.007662 18.482803
75.338861 17.461581
75.502381 15.419142
74.846972 14.396803
74.685024 15.215507
74.514529 16.008322
73.861353 14.982995
74.190527 13.362624
74.840381 14.386461
74.013113 14.158370
73.207892 13.945418
73.854786 14.972623
72.135274 14.574673
72.778651 15.604304
72.947717 14.786892
73.122598 13.995223
73.769747 15.022303
73.435712 16.642078
72.785194 15.614692
73.616895 15.846808
74.429805 16.057874
73.776319 15.032674
71.846280 14.184913
72.905683 13.561650
72.064983 13.398952
71.252015 13.226740
72.308938 12.605216
73.969815 12.927051
72.916352 13.555332
73.153759 12.754446
73.371321 11.973189
72.319595 12.598909
72.727916 10.936606
71.678233 11.558059
72.512519 11.722786
73.321384 11.892025
72.269190 12.516469
70.613613 12.182548
71.667607 11.564324
71.425833 12.363619
71.201221 13.143053
72.258540 12.522738
70.347019 11.734965
71.399001 11.115887
70.566717 10.949756
69.761744 10.774703
70.811732 10.156905
72.456766 10.486359
71.409612 11.109612
71.648648 10.309756
71.868190 9.5294798
70.822316 10.150651
71.233999 8.4897822
70.190320 9.1083730
71.017651 9.2754221
71.819555 9.4473797
70.773866 10.068418
69.132762 9.7307399
70.179746 9.1146275
69.938004 9.9133877
69.713554 10.692390
70.763280 10.074675
79.914106 16.681888
78.858159 17.334950
79.719368 17.474435
80.555049 17.617937
79.495775 18.275152
77.784252 17.989501
78.847443 17.341529
78.624314 18.147531
78.417664 18.933083
79.485027 18.281770
79.115194 19.956086
80.186384 19.301531
79.315629 19.164039
78.473492 19.015040
79.541297 18.363518
81.259398 18.633653
80.197168 19.294873
80.414496 18.487082
80.611689 17.699409
79.552041 18.356921
78.309404 14.281642
77.260300 14.926318
78.109875 15.072585
78.934019 15.223196
77.881985 15.871484
76.194560 15.573151
77.249669 14.932813
77.022740 15.737135
76.812464 16.521166
77.871313 15.878024
77.490041 17.547635
78.551954 16.901476
77.694229 16.757195
76.864672 16.602096
77.923615 15.958405
79.616850 16.242793
78.562640 16.894920
78.784439 16.088946
78.986343 15.302964
77.934284 15.951868
76.738336 11.866812
75.694837 12.503836
76.534507 12.656160
77.348770 12.813216
76.302756 13.453342
74.635947 13.143707
75.684274 12.510237
75.453959 13.312972
75.240500 14.095578
76.292143 13.459822
75.902941 15.126796
76.957323 14.488819
76.110895 14.337955
75.292205 14.176995
76.344067 13.540897
78.015809 13.839076
76.967952 14.482334
77.194210 13.678220
77.400819 12.893942
76.354666 13.534460
74.355607 12.698983
75.402106 12.065201
74.564626 11.910791
73.754461 11.746902
74.798896 11.114569
76.453838 11.420513
75.412660 12.058760
75.640617 11.255580
75.849268 10.472200
74.809421 11.108171
75.196652 9.4406099
74.158607 10.072850
74.990525 10.228936
75.797027 10.390158
74.756883 11.025125
73.106382 10.708827
74.148097 10.079229
73.916347 10.881092
73.701674 11.662947
74.746339 11.031544
72.827173 10.260597
73.868759 9.6330684
73.039034 9.4736672
72.236296 9.3053982
73.276240 8.6788725
74.916599 8.9955014
73.879257 9.6267142
74.110754 8.8250362
74.323183 8.0431142
73.286735 8.6725263
73.680854 7.0074810
72.646363 7.6348993
73.471968 7.7948869
74.272141 7.9603063
73.235990 8.5899206
71.598669 8.2666853
72.635882 7.6412521
72.402259 8.4421348
72.185906 9.2230777
73.225508 8.5962573
82.388681 15.116112
81.348236 15.779678
82.203945 15.910482
83.034199 16.045948
81.990899 16.713370
80.290727 16.445456
81.337689 15.786364
81.125494 16.594588
80.929659 17.382219
81.980318 16.720093
81.629628 18.396279
82.683478 17.731108
81.819160 17.602310
80.982918 17.462024
82.033874 16.799542
83.739694 17.053046
82.694085 17.724348
82.900806 16.914486
83.087985 16.124978
82.044452 16.792825
80.776754 12.729713
79.741295 13.384470
80.586549 13.522452
81.406428 13.665384
80.368456 14.323502
78.690021 14.042105
79.730801 13.391074
79.514028 14.197615
79.313821 14.983707
80.357931 14.330139
79.996534 16.003715
81.043604 15.347841
80.191094 15.211357
79.366265 15.064139
80.410812 14.410434
82.094202 14.679932
81.054138 15.341207
81.266578 14.533246
81.459658 13.745501
80.421334 14.403804
77.132995 11.571689
77.789717 12.588407
77.939789 11.767911
78.096488 10.973012
78.756099 11.987677
78.458899 13.613444
77.796386 12.598675
78.621575 12.814891
79.427450 13.010998
78.762790 11.997922
80.474528 12.349687
79.807457 11.339759
79.664037 12.161418
79.511968 12.957350
78.846215 11.944960
79.137816 10.318508
79.800733 11.329549
78.978869 11.117497
78.178739 10.920784
78.839515 11.934722
75.587239 9.1539602
76.233688 10.173753
76.386775 9.3539935
76.546489 8.5598989
77.195420 9.5781359
76.891423 11.202222
76.240239 10.184056
77.057223 10.404581
77.854897 10.605410
77.201995 9.5884190
78.898308 9.9509300
78.244002 8.9362783
78.095853 9.7568952
77.939469 10.551742
77.286097 9.5351043
77.586210 7.9105580
78.237407 8.9260173
77.423121 8.7085069
76.630061 8.5069516
77.279524 9.5248125
75.289044 8.7700385
76.320786 8.1334727
75.492982 7.9811068
74.691802 7.8200278
75.722252 7.1842138
77.359328 7.4873657
76.331203 8.1270064
76.555000 7.3233709
76.760169 6.5396547
75.732646 7.1777867
76.110520 5.5089914
75.084787 6.1456016
75.909246 6.2981788
76.708278 6.4567264
75.681205 7.0953169
74.046571 6.7872495
75.074417 6.1520227
74.849044 6.9550739
74.640890 7.7380725
75.670816 7.1017565
81.162725 12.425419
81.838253 13.431785
81.975214 12.608954
82.119283 11.811619
82.797748 12.815735
82.526951 14.446110
81.845116 13.441930
82.676702 13.645043
83.488597 13.828212
82.804632 12.825874
84.525435 13.153615
83.839738 12.154194
83.709229 12.978033
83.569708 13.776251
82.885393 12.774191
83.151828 11.143306
83.832826 12.144105
83.005184 11.944756
82.199620 11.760253
82.878502 12.764057
79.585302 10.034877
80.248182 11.045711
80.389854 10.223830
80.538505 9.4274850
81.203881 10.436534
80.922883 12.064982
80.254898 11.055930
81.077434 11.264945
81.880390 11.454361
81.210623 10.446728
82.915710 10.785830
82.244265 9.7808487
82.108114 10.603643
81.963364 11.400739
81.292931 10.393609
81.569616 8.7647467
82.237496 9.7706924
81.417996 9.5650738
80.620078 9.3749143
81.286181 10.383420
78.031122 7.6369423
78.683479 8.6515796
78.829256 7.8305300
78.981968 7.0351022
79.636467 8.0484094
79.346529 9.6750172
78.690085 8.6618358
79.505274 8.8759993
80.300920 9.0709113
79.643093 8.0586551
81.334187 8.4102796
80.675247 7.3999976
80.533652 8.2218092
80.383805 9.0179121
79.725472 8.0059197
80.012133 6.3788923
80.668603 7.3897827
79.855638 7.1781641
79.063783 6.9826562
79.718829 7.9956969
